class _BootyItem_fld 
{
class   _base_fld // Inherited class at offset 0x0
{

          unsigned long	m_dwIndex;		 // this+0x0
          char[0x40]	m_strCode;		 // this+0x4

};

        int	m_bExist;		 // this+0x44
        char[0x40]	m_strModel;		 // this+0x48
        int	m_nIconIDX;		 // this+0x88
        char[0x40]	m_strName;		 // this+0x8C
        int	m_nKindClt;		 // this+0xCC
        int	m_nFixPart;		 // this+0xD0
        char[0x40]	m_strCivil;		 // this+0xD4
        int	m_nMoney;		 // this+0x114
        int	m_nStdPrice;		 // this+0x118
        int	m_nStdPoint;		 // this+0x11C
        int	m_nProcessPoint;		 // this+0x120
        int	m_nKillPoint;		 // this+0x124
        int	m_nStoragePrice;		 // this+0x128
        int	m_bSell;		 // this+0x12C
        int	m_bExchange;		 // this+0x130
        int	m_bGround;		 // this+0x134
        int	m_bStoragePossible;		 // this+0x138
        int	m_bUseableNormalAcc;		 // this+0x13C
        char[0x40]	m_strTooltipIndex;		 // this+0x140
        int	m_bIsCash;		 // this+0x180
        int	m_bIsTime;		 // this+0x184
        
};
