class _mastery_lim_data 
{
        int[0x2]	m_nBnsMMastery;		 // this+0x0
        int	m_nBnsSMastery;		 // this+0x8
        int	m_nBnsDefMastery;		 // this+0xC
        int	m_nBnsPryMastery;		 // this+0x10
        int[0x3]	m_nBnsMakeMastery;		 // this+0x14
        int[0x8]	m_nBnsSkillMastery;		 // this+0x20
        int[0x18]	m_nBnsForceMastery;		 // this+0x40

};
