class _PcRoom_fld 
{
class   _base_fld // Inherited class at offset 0x0
{

          unsigned long	m_dwIndex;		 // this+0x0
          char[0x40]	m_strCode;		 // this+0x4

};

        int	m_bUse;		 // this+0x44
        char[0x40]	m_strEventName;		 // this+0x48
        struct _select_supply[0x5]	m_SelectSupply;		 // this+0x88
        struct _fix_supply[0xA]	m_FixSupply;		 // this+0x22C
        
};
