class _STORAGE_LIST 
{
class   _storage_con 
{
          unsigned char	m_bLoad;		 // this+0x0
          unsigned char	m_byTableCode;		 // this+0x1
          unsigned char	m_byClientIndex;		 // this+0x2
          unsigned short	m_wItemIndex;		 // this+0x3
          unsigned __int64	m_dwDur;		 // this+0x5
          unsigned long	m_dwLv;		 // this+0xD
          unsigned short	m_wSerial;		 // this+0x11
          bool	m_bLock;		 // this+0x13
          unsigned long	m_dwETSerialNumber;		 // this+0x14
          unsigned __int64	m_lnUID;		 // this+0x18
          unsigned char	m_byCsMethod;		 // this+0x20
          unsigned long	m_dwT;		 // this+0x21
          unsigned long	m_dwLendRegdTime;		 // this+0x25

};
class   _db_con 
{
class     _STORAGE_LIST::_storage_con // Inherited class at offset 0x0
{


};

          struct _STORAGE_LIST *	m_pInList;		 // this+0x29
          unsigned char	m_byStorageIndex;		 // this+0x31
                    
};
        int	m_nListNum;		 // this+0x0
        int	m_nUsedNum;		 // this+0x4
        int	m_nListCode;		 // this+0x8
        struct _STORAGE_LIST::_db_con *	m_pStorageList;		 // this+0xC

};
