class _CashShop_str_fld 
{
class   _base_fld // Inherited class at offset 0x0
{

          unsigned long	m_dwIndex;		 // this+0x0
          char[0x40]	m_strCode;		 // this+0x4

};

        int	m_nkor_Price;		 // this+0x44
        int	m_nbra_Price;		 // this+0x48
        int	m_nchn_Price;		 // this+0x4C
        int	m_ngbn_Price;		 // this+0x50
        int	m_nina_Price;		 // this+0x54
        int	m_njpn_Price;		 // this+0x58
        int	m_nphi_Price;		 // this+0x5C
        int	m_nrus_Price;		 // this+0x60
        int	m_ntpe_Price;		 // this+0x64
        int	m_nspa_Price;		 // this+0x68
        int	m_ntha_Price;		 // this+0x6C
        
};
