class _portal_fld 
{
class   _base_fld // Inherited class at offset 0x0
{

          unsigned long	m_dwIndex;		 // this+0x0
          char[0x40]	m_strCode;		 // this+0x4

};

        char[0x40]	m_strLinkMapCode;		 // this+0x44
        char[0x40]	m_strLinkPortalCode;		 // this+0x84
        char[0x40]	m_szMenu;		 // this+0xC4
        int	m_bNeedConCheck;		 // this+0x104
        int	m_nNeedChrLevel;		 // this+0x108
        int	m_nUpLevelLim;		 // this+0x10C
        struct _consume_item_list[0x3]	m_ConsumeItemList;		 // this+0x110
        int	m_nKind;		 // this+0x134
        char[0x40]	m_strUseRace;		 // this+0x138
        
};
