class _TimeItem_fld 
{
class   _base_fld // Inherited class at offset 0x0
{

          unsigned long	m_dwIndex;		 // this+0x0
          char[0x40]	m_strCode;		 // this+0x4

};

        char[0x40]	m_strLendItemCode;		 // this+0x44
        int	m_nCheckType;		 // this+0x84
        int	m_nUseTime;		 // this+0x88
        
};
